module codeberg.org/adasauce/wakey

go 1.22.0

require github.com/rs/zerolog v1.32.0

require (
	github.com/mattn/go-colorable v0.1.13 // indirect
	github.com/mattn/go-isatty v0.0.19 // indirect
	golang.org/x/sys v0.12.0 // indirect
)
